%YAML 1.1
%TAG !u! tag:unity3d.com,2011:
--- !u!114 &11400000
MonoBehaviour:
  m_ObjectHideFlags: 0
  m_CorrespondingSourceObject: {fileID: 0}
  m_PrefabInstance: {fileID: 0}
  m_PrefabAsset: {fileID: 0}
  m_GameObject: {fileID: 0}
  m_Enabled: 1
  m_EditorHideFlags: 0
  m_Script: {fileID: 11500000, guid: 7dbb5a65a01a1de4ebfe0c4a1352cc1a, type: 3}
  m_Name: CriAtomWindowPrefs
  m_EditorClassIdentifier: 
  outputAssetsRoot: D:/CRIWARE/CriAtomCraft/projects/sama_unipra_cri/Public/Assets
